<svg xmlns="http://www.w3.org/2000/svg" width="32" height="32" viewBox="0 0 32 32">
  <rect width="32" height="32" fill="#303030"/>
  <rect width="32" height="1" fill="#ffffff" fill-opacity="0.1"/>
  <g fill="#ffffff" opacity="0.7">
    <circle cx="16" cy="16" r="12" opacity="0"/>
    <path d="m13 13v6h6v-6zm2 2h2v2h-2z"/>
  </g>
</svg>
